{
    "clients": 
        [
        {
            "name": "BepInEx_x86",
            "url": "https://github.com/BepInEx/BepInEx/releases/download/v5.4.17/BepInEx_x86_5.4.17.0.zip",
            "type": "x86"
        },
        {
            "name": "BepInEx_x64",
            "url": "https://github.com/BepInEx/BepInEx/releases/download/v5.4.17/BepInEx_x64_5.4.17.0.zip",
            "type": "x64"
        }
    ]
}